\relax 
\providecommand\babel@aux[2]{}
\@nameuse{bbl@beforestart}
\catcode `"\active 
\babel@aux{russian}{}
\@writefile{toc}{\contentsline {chapter}{\numberline {1}Цель работы}{2}{}\protected@file@percent }
\@writefile{lof}{\addvspace {10\p@ }}
\@writefile{lot}{\addvspace {10\p@ }}
\newlabel{ris:image}{{}{2}}
\@writefile{toc}{\contentsline {chapter}{\numberline {2}Теоретическая часть}{3}{}\protected@file@percent }
\@writefile{lof}{\addvspace {10\p@ }}
\@writefile{lot}{\addvspace {10\p@ }}
\@writefile{toc}{\contentsline {chapter}{\numberline {3}Практическая часть}{5}{}\protected@file@percent }
\@writefile{lof}{\addvspace {10\p@ }}
\@writefile{lot}{\addvspace {10\p@ }}
\@writefile{lof}{\contentsline {figure}{\numberline {3.1}{\ignorespaces График зависимости $\lambda $ от $\omega $}}{5}{}\protected@file@percent }
\newlabel{ris:image}{{3.1}{5}}
\@writefile{lof}{\contentsline {figure}{\numberline {3.2}{\ignorespaces График зависимости $x_{1,2}(t)$(график собственных частот 3.3)}}{5}{}\protected@file@percent }
\newlabel{ris:image}{{3.2}{5}}
\@writefile{lof}{\contentsline {figure}{\numberline {3.3}{\ignorespaces График зависимости $\lambda $ от $\omega $ при биении}}{6}{}\protected@file@percent }
\newlabel{ris:image}{{3.3}{6}}
\@writefile{lof}{\contentsline {figure}{\numberline {3.4}{\ignorespaces График зависимости $x_{1,2}(t)$ (график собственных частот 3.5)}}{6}{}\protected@file@percent }
\newlabel{ris:image}{{3.4}{6}}
\@writefile{lof}{\contentsline {figure}{\numberline {3.5}{\ignorespaces График зависимости $\lambda $ от $\omega $ при нормальных колебаниях}}{7}{}\protected@file@percent }
\newlabel{ris:image}{{3.5}{7}}
\@writefile{toc}{\contentsline {chapter}{\numberline {4}Заключение}{8}{}\protected@file@percent }
\@writefile{lof}{\addvspace {10\p@ }}
\@writefile{lot}{\addvspace {10\p@ }}
\@writefile{toc}{\contentsline {chapter}{\numberline {5}Приложение}{9}{}\protected@file@percent }
\@writefile{lof}{\addvspace {10\p@ }}
\@writefile{lot}{\addvspace {10\p@ }}
\gdef \@abspage@last{11}
