\babel@toc {russian}{}\relax 
\contentsline {section}{\numberline {1}Цель работы}{3}{}%
\contentsline {section}{\numberline {2}Теоретическая часть}{4}{}%
\contentsline {section}{\numberline {3}Практическая часть}{6}{}%
\contentsline {section}{\numberline {4}Вывод}{21}{}%
\contentsline {section}{\numberline {5}Приложение}{22}{}%
