\relax 
\providecommand\babel@aux[2]{}
\@nameuse{bbl@beforestart}
\catcode `"\active 
\babel@aux{russian}{}
\@writefile{toc}{\contentsline {section}{\numberline {1}Цель работы}{3}{}\protected@file@percent }
\@writefile{toc}{\contentsline {section}{\numberline {2}Теоретическая часть}{4}{}\protected@file@percent }
\@writefile{toc}{\contentsline {section}{\numberline {3}Практическая часть}{6}{}\protected@file@percent }
\@writefile{toc}{\contentsline {section}{\numberline {4}Вывод}{21}{}\protected@file@percent }
\@writefile{toc}{\contentsline {section}{\numberline {5}Приложение}{22}{}\protected@file@percent }
\gdef \@abspage@last{25}
