\babel@toc {russian}{}\relax 
\contentsline {section}{\numberline {1}Цель работы}{3}{}%
\contentsline {section}{\numberline {2}Теоретическая часть}{4}{}%
\contentsline {section}{\numberline {3}Практическая часть}{5}{}%
\contentsline {section}{\numberline {4}Вывод}{6}{}%
\contentsline {section}{\numberline {5}Приложение}{7}{}%
